{
    "backendType": "PY_MEMORY", 
    "executionParams": {
        "sparkCheckpoint": "NONE", 
        "containerSelection": {
            "containerMode": "INHERIT"
        }, 
        "sparkParams": {
            "pipelineAllowMerge": null, 
            "sparkPreparedDFStorageLevel": "MEMORY_AND_DISK", 
            "sparkConf": null, 
            "sparkRepartitionNonHDFS": 1, 
            "pipelineAllowStart": null
        }, 
        "envSelection": {}
    }, 
    "taskType": "PREDICTION"
}