{
    "deduplication": {
        "enabled": false
    },
    "reduce": {
        "enabled": false,
        "kept_variance": 0.0
    },
    "numerical_combinations": {
        "pairwiseLinear": false,
        "polynomialInteraction": false
    },
    "target_remapping": [],
    "per_feature": {
        "pages_visited": {
            "generate_derivative": false,
            "missing_impute_with": "MEAN",
            "name": "pages_visited",
            "numerical_handling": "REGULAR",
            "binarize_threshold_mode": "MEDIAN",
            "state": {
                "dssWantsToModify": false,
                "userModified": false,
                "autoModifiedByDSS": false,
                "recordedMeaning": "DoubleMeaning"
            },
            "role": "INPUT",
            "quantile_bin_nb_bins": 4,
            "binarize_constant_threshold": 0.0,
            "missing_handling": "IMPUTE",
            "rescaling": "AVGSTD",
            "type": "NUMERIC",
            "impute_constant_value": 0.0
        },
        "revenue": {
            "generate_derivative": false,
            "name": "revenue",
            "binarize_threshold_mode": "MEDIAN",
            "state": {
                "dssWantsToModify": false,
                "userModified": false,
                "autoModifiedByDSS": false,
                "recordedMeaning": "LongMeaning"
            },
            "role": "TARGET",
            "binarize_constant_threshold": 0.0,
            "quantile_bin_nb_bins": 4,
            "type": "NUMERIC",
            "impute_constant_value": 0.0
        },
        "gender": {
            "min_samples": 10,
            "name": "gender",
            "category_handling": "DUMMIFY",
            "cumulative_proportion": 0.95,
            "state": {
                "dssWantsToModify": false,
                "userModified": false,
                "autoModifiedByDSS": false,
                "recordedMeaning": "Gender"
            },
            "missing_handling": "IMPUTE",
            "max_nb_categories": 100,
            "dummy_clip": "MAX_NB_CATEGORIES",
            "role": "INPUT",
            "max_cat_safety": 200,
            "missing_impute_with": "MODE",
            "type": "CATEGORY",
            "dummy_drop": "NONE",
            "hash_whole_categories": false
        },
        "age": {
            "generate_derivative": false,
            "missing_impute_with": "MEAN",
            "name": "age",
            "numerical_handling": "REGULAR",
            "binarize_threshold_mode": "MEDIAN",
            "state": {
                "dssWantsToModify": false,
                "userModified": false,
                "autoModifiedByDSS": false,
                "recordedMeaning": "LongMeaning"
            },
            "role": "INPUT",
            "quantile_bin_nb_bins": 4,
            "binarize_constant_threshold": 0.0,
            "missing_handling": "IMPUTE",
            "rescaling": "AVGSTD",
            "type": "NUMERIC",
            "impute_constant_value": 0.0
        },
        "campain": {
            "min_samples": 10,
            "name": "campain",
            "category_handling": "DUMMIFY",
            "cumulative_proportion": 0.95,
            "state": {
                "dssWantsToModify": false,
                "userModified": false,
                "autoModifiedByDSS": false,
                "recordedMeaning": "Boolean"
            },
            "missing_handling": "IMPUTE",
            "max_nb_categories": 100,
            "dummy_clip": "MAX_NB_CATEGORIES",
            "role": "INPUT",
            "max_cat_safety": 200,
            "missing_impute_with": "MODE",
            "type": "CATEGORY",
            "dummy_drop": "NONE",
            "hash_whole_categories": false
        },
        "ip_country": {
            "min_samples": 10,
            "name": "ip_country",
            "category_handling": "DUMMIFY",
            "cumulative_proportion": 0.95,
            "state": {
                "dssWantsToModify": false,
                "userModified": false,
                "autoModifiedByDSS": false,
                "recordedMeaning": "CountryMeaning"
            },
            "missing_handling": "IMPUTE",
            "max_nb_categories": 100,
            "dummy_clip": "MAX_NB_CATEGORIES",
            "role": "INPUT",
            "max_cat_safety": 200,
            "missing_impute_with": "MODE",
            "type": "CATEGORY",
            "dummy_drop": "NONE",
            "hash_whole_categories": false
        },
        "customer_id": {
            "min_samples": 10,
            "name": "customer_id",
            "category_handling": "DUMMIFY",
            "cumulative_proportion": 0.95,
            "state": {
                "dssWantsToModify": false,
                "userModified": true,
                "autoModifiedByDSS": false,
                "recordedMeaning": "Text"
            },
            "missing_handling": "IMPUTE",
            "max_nb_categories": 100,
            "dummy_clip": "MAX_NB_CATEGORIES",
            "role": "REJECT",
            "max_cat_safety": 200,
            "missing_impute_with": "MODE",
            "type": "CATEGORY",
            "dummy_drop": "NONE",
            "hash_whole_categories": false
        },
        "price_first_item_purchased": {
            "generate_derivative": false,
            "missing_impute_with": "MEAN",
            "name": "price_first_item_purchased",
            "numerical_handling": "REGULAR",
            "binarize_threshold_mode": "MEDIAN",
            "state": {
                "dssWantsToModify": false,
                "userModified": false,
                "autoModifiedByDSS": false,
                "recordedMeaning": "DoubleMeaning"
            },
            "role": "INPUT",
            "quantile_bin_nb_bins": 4,
            "binarize_constant_threshold": 0.0,
            "missing_handling": "IMPUTE",
            "rescaling": "AVGSTD",
            "type": "NUMERIC",
            "impute_constant_value": 0.0
        }
    },
    "featureSelection": {
        "kind": "NONE",
        "filterOnlyKBestNbToKeep": 10
    },
    "feature_generation": {
        "manual_interactions": {
            "interactions": []
        },
        "pairwise_linear": {
            "behavior": "DISABLED"
        },
        "polynomial_combinations": {
            "behavior": "DISABLED"
        }
    }
}